Autoregressive Models · RxInfer.jl
…
    h_prev = h_0
    for t in 1:length(x)-1
        
        e[t+1] ~ Normal(mean = 0.0, precision = γ)
        h[t]   ~ S*h_prev + b*e[t]
        z[t+1] ~ AR(h[t], η, τ)
        x[t+1] ~ dot(z[t+1], b) + dot(θ, x_prev[t]) + e[t+1]
        h_prev = h[t]
    end
end
To validate our model and inference, we will use American Airlines stock data downloaded from Kaggle

x_df = CSV.read("../data/arma/aal_stock.csv", DataFrame)

1259×7 DataFrame
  Row │ date        open     high     low      close    volume    Name
      │ Date        Float64  Float64  Float64  Float64  Int64     String3
──────┼───────────────────────────────────────────────────────────────────
    1 │ 2013-02-08    15.07    15.12   14.63     14.75   8407500  AAL
    2 │ 2013-02-11    14.89    15.01   14.26     14.46   8882000  AAL
    3 │ 2013-02-12    14.45    14.51   14.1      14.27   8126000  AAL
    4 │ 2013-02-13    14.3     14.94   14.25     14.66  10259500  AAL
    5 │ 2013-02-14    14.94    14.96   13.16     13.99  31879900  AAL
    6 │ 2013-02-15    13.93    14.61   13.93     14.5   15628000  AAL
    7 │ 2013-02-19    14.33    14.56   14.08     14.26  11354400  AAL
    8 │ 2013-02-20    14.17    14.26   13.15     13.33  14725200  AAL
  ⋮   │     ⋮          ⋮        ⋮        ⋮        ⋮        ⋮         ⋮
 1253 │ 2018-01-30    52.45    53.05   52.36     52.59   4741808  AAL
 1254 │ 2018-01-31    53.08    54.71   53.0      54.32   5962937  AAL
 1255 │ 2018-02-01    54.0     54.64   53.59     53.88   3623078  AAL
 1256 │ 2018-02-02    53.49    53.99   52.03     52.1    5109361  AAL
 1257 │ 2018-02-05    51.99    52.39   49.75     49.76   6878284  AAL
 1258 │ 2018-02-06    49.32    51.5    48.79     51.18   6782480  AAL
 1259 │ 2018-02-07    50.91    51.98   50.89     51.4    4845831  AAL
                                                         1244 rows omitted
…
